58.88,103.5
56.3,93.66
24.67,7.9
18.23,3.17
24.17,8.22
22.04,6.37
46.65,50.23
47.9,55.6
18.48,1.28
46.21,51.09
50.33,67.48
28.74,11.11
45.06,50.64
22.69,6.46
46.95,53.27
24.41,7.05
53.29,73.98
42.62,38.05
58.62,103.16
26.19,9.89
18.1,1.41
50.33,78.34
18.42,2.45
55.8,91.67
50.52,80.56
20.94,5.42
56.01,100.95
22.38,6.84
48.95,53.8
45.49,50.9
55.25,97.43
40.01,39.14
40.94,40.65
26.92,9.59
42.94,41.31
17.55,2.02
55.05,100.38
17.99,2.97
45.06,55.13
48.18,52.39
48.23,58.32
51.57,67.54
46.76,55.99
26.08,8.97
53.95,72.0
56.0,103.85
55.65,96.05
26.9,9.13
26.21,9.79
20.01,5.13
47.76,53.97
55.58,100.86
24.14,8.21
20.91,5.73
28.36,10.55
24.52,7.38
41.79,38.75
20.22,5.22
20.73,5.89
26.18,8.74
28.29,11.44
51.88,72.66
43.71,41.65
43.84,42.08
20.6,5.79
18.77,1.93
51.71,78.3
28.36,10.59
20.44,5.88
26.44,9.52
50.39,74.47
22.41,6.72
47.44,56.35
20.26,5.9
45.21,58.72
22.54,6.89
46.23,53.66
58.64,108.13
45.39,54.63
28.13,10.71
17.12,1.82
20.96,5.95
45.83,52.86
43.85,39.64
26.29,9.08
17.43,2.88
53.21,71.23
57.8,91.66
46.14,51.42
26.41,8.53
42.54,41.88
28.08,10.73
42.82,39.58
28.65,10.22
48.2,52.54
17.82,4.53
17.37,3.01
47.89,50.94
51.5,77.27
53.94,80.47
24.92,7.53
20.73,5.84
17.45,1.96
55.05,103.54
22.02,6.41
26.73,9.98
24.27,7.15
24.42,8.11
42.84,41.18
22.5,6.32
28.43,11.21
22.47,6.91
48.72,49.63
45.81,55.81
52.16,67.29
51.01,68.21
24.49,7.7
56.77,99.21
17.01,3.51
47.6,55.6
20.34,5.23
45.04,53.04
45.01,56.25
20.94,5.61
41.19,44.34
46.81,50.02
17.72,2.99
28.45,10.43
50.56,73.79
26.59,9.1
26.39,9.25
56.71,109.73
57.33,103.05
20.73,5.79
48.74,51.3
56.93,104.49
46.9,51.33
42.37,41.33
28.14,10.83
43.36,45.03
40.59,39.01
22.21,6.65
52.11,68.3
57.29,97.99
48.3,57.42
42.71,41.27
50.82,80.1
20.84,5.88
17.28,4.49
50.8,71.98
41.7,41.44
43.47,44.51
17.29,3.55
40.47,41.63
50.76,72.52
43.2,38.22
20.3,5.43
20.45,5.68
24.66,7.64
17.78,1.19
24.69,8.25
24.99,7.31
46.03,50.95
41.72,41.93
57.14,93.37
57.99,99.55
48.24,55.06
24.82,7.47
42.36,38.88
20.19,5.71
56.15,106.65
28.04,10.84
43.32,38.93
57.95,91.43
20.45,5.22
45.97,59.25
52.9,78.95
48.3,52.7
28.04,10.57
41.46,39.92
42.7,44.29
58.16,108.87
26.31,8.97
22.41,6.78
45.96,52.18
47.3,50.98
50.22,80.75
26.04,9.14
24.44,8.23
28.22,10.86
45.92,58.99
46.42,50.9
51.78,76.74
47.55,54.67
24.0,8.01
47.56,52.56
18.32,3.62
20.18,5.07
18.76,1.51
24.36,7.97
22.77,6.08
20.34,5.68
46.55,57.61
22.56,6.92
26.17,8.67
58.13,101.61
48.32,49.4
22.21,6.69
56.31,108.36
41.53,42.84
56.46,108.89
28.43,10.73
17.59,4.14
26.79,9.79
26.33,9.17
41.4,38.32
22.94,6.81
51.56,78.84
43.11,38.49
52.63,78.71
20.87,5.68
22.86,6.35
46.39,50.52
24.62,8.03
41.03,37.49
24.54,7.11
50.16,73.13
41.01,39.78
24.54,7.85
57.4,97.11
26.41,9.64
50.36,75.22
58.81,105.68
42.99,38.01
46.91,50.67
56.13,107.47
26.84,9.02
58.08,109.55
46.98,52.98
42.11,39.12
22.93,6.38
28.88,10.43
28.06,10.05
53.79,70.7
28.3,10.43
53.62,70.87
40.43,40.9
26.97,9.89
26.52,8.75
55.76,108.69
20.37,5.53
26.4,8.52
58.49,107.67
24.3,7.27
45.0,57.57
45.96,54.05
55.2,103.82
43.73,39.53
53.96,77.57
51.06,77.63
47.81,51.6
28.32,11.13
22.67,6.64
52.17,68.12
28.8,10.58
58.43,95.64
26.84,9.42
58.11,92.81
45.96,53.93
24.49,7.06
40.81,40.04
42.31,38.43
47.93,55.95
22.31,6.98
18.54,1.96
22.62,6.13
58.05,105.26
40.83,37.82
28.04,10.09
46.14,49.09
45.34,58.5
22.59,6.05
22.57,6.65
22.91,6.09
50.11,76.0
50.05,78.16
53.66,75.1
24.41,8.07
28.79,10.69
22.22,6.6
50.14,80.82
55.09,95.88
51.64,78.47
20.99,5.91
22.94,6.51
41.77,41.6
58.99,100.36
45.94,58.47
42.51,40.56
47.37,57.55
26.62,9.26
55.57,107.07
22.76,6.73
48.39,52.37
28.42,11.14
28.44,11.02
55.17,109.22
51.14,71.76
43.6,43.3
18.58,2.02
17.13,3.86
41.95,41.39
48.35,53.31
22.24,6.14
18.21,2.21
20.09,5.8
47.04,55.66
18.8,2.26
20.63,5.62
20.17,5.94
46.9,50.55
24.56,7.98
46.17,51.29
22.9,6.12
47.54,54.71
17.0,2.07
28.7,10.3
22.42,6.83
24.39,7.4
42.17,41.26
28.06,11.24
22.79,6.08
28.68,11.17
40.42,39.17
46.7,55.72
57.43,92.74
20.83,5.68
24.73,7.53
22.92,6.46
41.66,43.42
18.83,2.76
48.26,58.93
57.75,109.34
17.57,4.2
56.88,96.49
18.42,2.37
53.51,71.71
22.82,6.57
55.77,91.55
20.06,5.55
58.49,100.4
28.79,10.61
26.53,8.69
42.49,40.87
42.13,44.87
24.82,7.76
26.91,9.12
20.78,5.47
24.11,7.46
57.92,106.97
24.19,8.22
22.23,6.62
20.91,5.09
28.82,10.89
17.9,3.72
40.72,42.46
24.86,7.79
26.15,9.1
53.81,69.8
43.36,37.87
18.13,4.33
26.11,9.66
20.69,5.12
22.33,6.16
57.65,107.4
58.26,109.08
55.69,99.23
28.41,10.56
52.83,72.55
40.41,40.6
17.9,3.59
45.72,49.63
20.64,5.4
26.43,8.83
41.07,38.5
17.66,1.89
28.07,10.52
17.51,2.15
28.84,10.26
52.46,77.47
43.96,43.98
57.24,105.24
28.33,10.89
50.7,68.13
52.32,72.38
53.48,74.34
40.67,44.7
22.79,6.45
55.31,101.35
56.06,109.4
56.55,103.07
57.59,102.93
28.29,10.41
24.43,7.06
26.28,9.22
26.72,9.77
26.66,8.74
22.1,6.16
50.62,79.41
18.8,1.28
43.86,39.36
51.33,78.29
58.69,109.27
20.03,5.31
17.23,3.21
24.42,8.31
48.37,53.8
28.2,10.92
22.77,6.69
22.67,6.59
45.44,49.52
51.98,67.83
42.7,41.94
26.65,8.76
43.89,43.12
52.04,68.6
48.15,57.63
47.92,51.22
28.92,10.86
28.55,10.53
40.72,39.86
24.97,8.19
48.76,56.84
20.24,5.38
45.9,52.55
48.03,57.96
51.34,68.85
57.71,93.06
20.25,5.15
20.72,5.29
53.9,79.75
55.96,109.43
50.26,67.67
48.94,49.41
58.23,101.06
55.58,103.97
42.92,42.32
52.01,79.95
58.83,101.74
48.35,49.2
17.77,1.85
24.79,7.71
43.5,38.72
18.7,4.26
53.61,76.29
42.18,43.85
57.31,97.65
20.43,5.6
24.12,8.15
40.93,41.22
20.0,5.57
53.07,72.79
53.78,74.13
20.75,5.14
22.85,6.58
48.79,54.1
20.23,5.94
56.66,98.94
26.09,9.57
28.54,10.58
51.24,71.92
18.11,2.44
52.97,81.18
18.62,1.8
28.17,11.2
52.45,73.93
28.51,10.2
43.37,39.22
48.91,49.11
24.27,7.85
42.39,43.92
26.38,9.79
26.26,9.57
20.35,5.71
22.21,6.68
48.23,54.71
53.29,75.9
28.52,10.54
51.89,77.05
24.17,7.73
20.66,5.45
20.86,5.97
22.94,6.42
50.21,72.6
26.32,9.85
26.1,9.91
47.69,51.82
22.1,6.46
24.66,7.21
53.12,73.68
22.21,6.16
43.66,40.97
28.1,11.46
56.18,91.21
24.21,8.22
56.35,107.91
18.65,2.95
26.21,8.55
26.91,8.98
55.3,92.88
20.88,5.78
24.21,7.19
57.71,102.42
53.44,70.69
20.52,5.6
26.88,9.64
28.95,10.04
28.68,11.5
20.63,6.0
52.34,72.54
24.55,7.95
26.13,8.52
40.41,43.04
42.81,40.0
17.92,1.11
57.37,105.25
26.73,9.09
57.01,101.64
40.16,40.26
17.57,2.14
22.47,6.63
53.23,73.17
24.35,7.31
40.54,37.75
50.05,70.3
28.67,11.25
24.92,7.52
28.04,11.0
43.16,37.81
24.23,7.64
57.73,96.29
20.89,5.59
22.34,6.07
24.09,8.2
58.02,107.6
26.06,8.65
28.18,10.45
52.36,80.99
26.54,9.8
52.72,79.42
26.38,9.43
24.06,7.17
20.57,6.0
22.19,6.96
26.1,8.78
42.18,39.04
46.31,56.62
22.1,6.91
24.61,8.26
20.35,5.72
51.08,68.23
28.69,10.98
20.22,5.25
42.73,44.56
17.15,2.93
20.52,5.64
42.9,43.79
57.53,94.52
24.47,8.09
28.85,11.1
26.31,9.74
28.23,11.12
46.33,49.42
53.02,69.84
26.49,9.91
28.62,10.97
56.46,96.85
22.2,6.09
20.03,5.25
57.17,102.94
28.93,11.34
28.48,10.3
51.31,71.75
28.21,10.66
24.07,7.84
28.09,10.04
28.35,11.5
42.76,42.97
17.09,2.81
46.93,51.04
58.07,102.88
26.34,8.63
57.54,100.52
18.96,2.37
53.44,71.29
24.72,7.74
52.07,79.13
28.77,11.03
22.03,6.25
50.68,80.86
26.59,9.24
51.43,69.82
20.11,5.91
47.53,55.29
18.95,4.79
22.02,6.37
28.23,10.25
28.08,11.31
28.07,10.28
55.03,99.17
50.22,77.11
50.68,78.27
48.26,50.9
28.04,11.05
40.9,42.72
42.7,40.56
24.07,8.43
42.87,40.03
43.84,37.3
17.07,3.16
20.72,5.69
41.65,37.61
24.58,7.43
17.01,4.54
47.71,58.07
45.34,52.85
47.04,50.5
22.23,6.4
41.15,42.49
51.96,74.92
47.52,58.57
26.43,8.56
40.57,45.02
26.29,9.21
28.74,10.09
47.14,50.32
56.41,106.52
58.44,93.14
51.75,78.93
48.89,50.0
24.22,8.0
57.34,94.54
43.18,41.48
46.34,55.69
28.2,11.3
48.52,54.06
28.73,11.38
18.73,3.46
56.82,108.87
56.87,99.96
50.42,79.13
51.99,78.53
42.89,40.67
56.22,92.56
24.89,7.65
43.09,40.31
47.74,52.55
28.82,10.81
52.4,80.95
22.75,6.49
47.3,52.85
28.73,10.57
40.21,44.01
46.94,50.02
22.54,6.33
24.82,7.73
55.58,91.52
40.42,43.71
24.8,8.09
26.77,9.12
18.9,2.5
42.12,37.76
22.03,6.46
42.25,38.28
42.18,42.41
58.35,95.28
57.1,103.99
22.28,6.0
47.84,51.29
55.47,93.77
53.2,75.79
48.21,51.95
52.75,78.55
20.45,5.75
28.34,10.28
20.42,5.14
24.68,8.13
28.39,10.41
41.09,42.42
26.16,9.51
51.87,68.6
28.93,10.58
24.16,7.1
20.72,5.43
24.99,7.53
57.32,101.39
18.38,3.13
50.44,77.09
52.26,70.37
24.47,8.45
24.35,7.54
28.16,10.11
45.68,58.65
57.78,104.24
41.45,42.11
20.04,5.27
22.13,6.43
41.82,43.74
26.96,9.24
17.02,2.62
55.43,100.99
26.73,8.54
51.43,74.13
24.49,8.3
55.86,108.0
46.07,50.02
26.15,9.18
17.12,1.98
40.7,37.45
58.19,105.49
17.59,3.5
20.74,5.62
28.5,11.04
28.38,10.08
43.23,37.68
22.51,7.0
40.77,44.32
45.82,58.51
40.09,38.55
26.04,9.66
20.49,5.22
50.59,72.98
20.88,5.31
28.77,11.37
28.17,11.1
22.77,6.65
50.18,72.75
53.66,73.63
18.62,1.26
20.61,5.21
20.06,5.68
26.31,9.36
47.44,52.39
55.4,91.78
20.66,5.92
41.69,42.27
46.44,54.86
22.21,6.66
24.65,7.22
52.79,73.9
24.49,8.14
46.71,52.78
43.46,40.78
55.42,99.36
50.29,74.72
22.46,6.41
24.47,7.77
43.46,43.06
55.78,95.4
52.77,74.2
22.15,6.83
46.1,50.27
58.06,93.22
52.47,67.59
55.44,106.98
58.04,106.54
46.27,50.01
20.47,5.78
28.55,11.29
17.4,2.35
47.67,49.41
18.51,2.13
28.14,10.2
58.89,105.38
20.05,5.69
42.68,42.87
52.64,73.85
26.34,9.55
28.45,11.16
43.48,40.07
46.38,57.5
26.34,8.79
20.35,5.14
42.04,41.18
22.4,6.33
20.68,5.43
18.8,3.17
22.52,6.52
47.08,53.24
26.78,9.73
41.86,40.36
17.55,2.96
28.12,10.45
20.9,5.64
24.14,7.01
45.7,54.76
46.95,52.64
26.01,8.9
52.42,76.59
28.79,10.3
50.33,75.16
28.14,10.91
42.85,43.23
50.71,79.21
56.54,97.83
24.38,7.13
28.24,10.84
18.86,3.62
24.17,7.23
20.48,5.72
28.02,10.75
26.25,9.54
17.3,3.57
43.83,39.81
24.57,7.58
26.26,8.56
40.38,44.56
24.59,8.25
57.95,101.63
20.24,5.18
20.14,5.6
46.45,53.05
22.12,6.74
40.66,40.95
22.78,6.66
58.39,100.83
47.27,55.3
46.71,51.41
55.56,101.26
20.59,5.6
22.22,6.99
57.25,98.07
57.69,107.18
18.81,2.27
28.58,11.07
42.31,37.37
17.17,4.78
53.93,69.44
40.26,38.02
26.67,9.83
58.37,93.61
52.91,78.69
52.04,74.59
46.57,49.1
48.03,57.75
28.76,11.06
55.93,108.91
24.7,7.86
48.13,50.58
53.01,68.6
56.95,94.77
42.29,37.49
17.88,2.65
41.37,39.68
57.66,101.22
20.05,5.13
22.76,6.63
56.7,103.16
20.69,5.56
50.21,76.2
24.82,8.03
43.97,38.12
20.97,5.35
53.86,74.6
46.01,58.87
50.79,67.98
20.87,5.1
43.87,40.08
52.68,73.37
53.17,80.38
20.71,5.01
53.39,75.4
45.63,50.42
22.77,6.2
28.29,10.96
57.37,97.74
56.5,100.68
56.25,98.19
22.36,6.37
51.71,70.91
43.68,40.86
24.37,7.83
46.78,54.37
53.28,67.95
26.35,9.51
26.87,8.84
22.27,6.28
17.44,4.41
54.0,73.42
43.85,43.7
50.65,71.12
22.5,6.11
22.16,6.04
20.34,5.77
47.19,49.73
20.09,5.41
50.58,80.61
42.92,37.61
51.02,77.98
42.88,40.22
43.12,41.45
40.93,41.79
24.52,7.79
56.57,108.06
46.94,49.74
17.88,1.77
26.51,8.67
51.47,68.46
18.5,3.8
28.71,10.34
55.04,103.41
28.84,10.9
17.36,1.69
52.7,74.93
43.18,41.3
18.11,3.1
57.29,108.19
50.1,81.17
47.97,59.01
43.38,42.94
48.94,53.38
22.8,6.31
26.31,9.92
20.12,5.48
40.55,43.8
24.14,8.16
58.34,93.33
17.93,4.94
26.7,9.88
45.12,57.43
26.8,8.95
50.81,74.88
26.1,8.55
26.7,9.55
41.6,40.73
22.55,6.8
26.49,9.15
24.84,8.08
26.12,8.68
22.97,6.7
41.14,43.56
53.4,78.93
26.29,8.87
56.3,105.89
17.94,2.29
51.77,68.43
46.7,58.09
26.11,9.07
26.34,9.49
28.98,11.33
52.59,70.99
56.1,105.28
45.51,55.13
50.7,79.49
22.42,6.4
20.21,5.51
28.59,11.2
22.32,6.69
28.52,10.14
24.4,8.35
18.82,2.06
43.92,37.32
28.19,10.68
26.48,9.8
45.77,54.85
58.64,99.6
28.04,10.95
20.52,5.92
52.01,75.16
22.65,6.83
22.15,6.03
58.08,108.7
18.45,1.8
24.39,8.12
28.59,10.57
28.24,10.83
22.12,6.2
22.62,6.12
45.19,57.64
26.31,9.2
26.25,9.52
42.42,38.85
20.07,5.75
46.7,57.52
52.59,68.97
40.86,40.2
28.3,10.03
24.29,7.38
46.7,51.43
53.02,77.54
20.18,5.43
57.82,91.42
56.95,109.04
24.33,8.22
26.83,9.77
22.1,6.69
28.9,10.9
28.16,11.22
40.27,38.56
20.21,5.97
47.39,56.01
22.76,6.67
22.99,6.51
56.17,99.4
48.89,57.16
24.86,7.07
24.1,8.08
41.47,40.61
40.6,41.42
24.81,7.27
20.76,5.81
53.4,67.79
41.34,42.6
22.52,6.4
26.06,9.31
28.16,11.12
20.81,5.25
22.49,6.83
24.7,7.28
52.28,76.2
17.99,1.58
50.71,75.18
42.94,37.68
18.52,4.36
28.23,11.11
18.32,4.61
41.18,42.81
51.44,72.57
55.53,92.61
53.58,78.68
22.13,6.1
24.74,7.45
17.03,2.74
51.31,69.19
22.77,6.41
17.67,2.76
46.39,51.24
41.8,37.48
56.56,99.89
24.28,8.04
20.29,5.93
56.13,97.27
28.52,10.77
43.91,40.59
26.63,9.96
20.15,5.73
26.59,9.26
41.61,38.7
28.76,10.13
57.21,96.69
41.69,42.43
42.57,40.39
28.4,10.41
20.03,5.69
56.48,93.37
58.64,101.42
20.83,5.13
20.16,5.82
41.11,38.53
58.18,109.64
47.87,49.9
20.47,5.87
28.73,11.15
28.11,10.37
26.06,9.21
47.53,56.07
26.44,9.37
55.47,107.28
18.83,4.72
17.42,2.25
26.67,9.2
20.92,5.37
20.09,5.64
24.46,7.87
26.82,8.83
55.81,93.08
48.97,56.05
18.13,2.13
58.51,91.07
17.03,3.76
26.16,9.08
26.28,9.12
48.57,49.14
56.21,103.0
28.66,10.72
40.32,38.46
48.4,57.82
22.22,6.99
55.72,95.4
24.74,8.18
22.24,6.16
43.31,42.66
26.15,9.38
43.68,39.75
22.89,6.05
47.4,52.0
56.36,98.25
51.96,75.62
20.63,5.65
47.44,51.58
53.26,71.46
56.5,97.55
18.95,3.24
17.9,4.51
22.42,6.02
52.67,67.88
51.76,73.15
24.18,7.57
26.8,8.76
42.86,37.51
17.27,1.76
57.29,104.26
24.48,7.71
26.32,9.45
46.42,55.44
26.32,9.49
53.69,71.95
24.68,7.09
20.19,5.11
28.81,10.01
17.13,1.85
45.07,51.65
17.79,4.76
45.24,52.7
43.89,40.98
58.17,102.58
57.58,93.48
28.49,10.3
28.04,10.16
45.62,52.27
42.17,37.29
56.35,102.91
28.65,11.19
58.07,107.75
41.84,42.31
43.99,44.53
26.33,8.78
55.21,109.38
50.41,79.04
40.53,38.42
46.04,56.07
24.93,8.26
58.14,109.86
46.84,57.6
58.35,98.34
55.82,91.09
48.29,52.73
18.97,1.22
20.76,5.91
24.34,8.26
20.08,5.97
22.44,6.42
20.16,5.92
24.49,7.87
26.13,9.22
22.29,6.14
48.8,55.84
28.12,10.4
51.17,69.19
57.74,109.5
40.72,41.89
43.37,37.43
20.36,5.63
52.35,68.44
17.75,4.92
47.9,49.29
24.96,8.09
20.21,5.04
41.4,42.03
41.76,42.23
50.0,79.04
20.68,5.14
28.9,10.36
48.61,56.85
28.39,11.28
43.62,41.83
28.05,11.06
41.77,37.84
52.93,71.95
40.69,43.69
56.95,105.48
57.04,95.59
50.81,69.55
28.73,10.02
22.36,6.79
18.72,1.84
28.53,10.75
28.06,10.67
52.73,75.11
40.73,38.32
58.56,100.27
22.73,6.78
46.52,53.23
41.19,41.64
24.1,8.14
40.86,40.58
17.9,4.85
28.83,10.45
46.82,58.1
56.86,96.94
18.87,2.6
57.77,99.42
22.75,6.65
55.82,91.27
40.77,42.9
20.11,5.1
20.26,5.94
58.95,96.84
20.05,5.34
45.42,54.29
24.29,8.5
56.66,96.96
53.32,80.19
40.41,39.17
22.8,6.67
55.49,100.69
22.11,6.21
48.53,51.7
42.23,41.72
43.43,39.36
26.1,9.09
26.76,9.97
18.32,3.94
17.11,1.76
22.54,6.55
20.41,5.52
56.3,106.69
20.76,5.86
17.87,3.89
41.9,40.7
26.09,9.59
28.31,10.99
46.8,55.95
18.07,2.64
57.63,106.0
24.41,7.17
53.5,81.27
45.55,58.32
56.1,102.58
47.04,53.68
26.73,9.66
18.56,1.62
47.87,54.56
58.83,98.42
56.15,106.51
28.14,10.48
57.94,94.92
45.57,59.39
28.3,11.04
17.48,2.28
50.49,70.18
46.67,55.36
41.14,40.15
26.71,8.89
46.83,51.44
48.27,56.97
48.99,58.73
20.46,5.36
20.45,5.31
55.57,101.65
20.53,5.77
26.87,9.08
55.43,108.79
43.79,43.49
53.05,78.58
24.39,8.32
43.71,45.04
26.06,8.51
57.25,100.54
40.42,42.96
47.29,55.76
50.5,73.38
20.0,5.51
26.77,9.4
50.23,72.7
23.0,6.47
26.17,9.64
22.33,6.11
46.62,54.49
47.27,52.71
45.77,54.45
24.63,7.65
55.93,106.79
48.44,53.79
20.77,5.95
45.99,52.29
24.05,7.46
41.8,39.91
20.57,5.56
25.0,7.21
24.1,8.44
56.98,104.47
17.51,2.4
50.64,67.37
41.12,37.29
42.93,42.03
47.51,54.27
56.14,95.42
51.22,75.22
28.86,11.11
40.27,38.14
48.19,53.74
57.88,92.64
24.06,8.26
53.24,80.88
55.14,105.86
40.55,41.57
22.32,6.68
58.77,108.4
48.17,58.61
20.36,5.38
41.12,43.22
51.44,77.86
26.1,8.51
28.6,11.09
22.09,6.89
58.31,92.29
26.82,8.76
24.77,7.37
57.46,104.14
46.44,57.95
26.45,9.21
17.98,3.1
22.73,6.93
56.88,108.21
40.74,44.07
53.38,74.14
52.72,68.81
50.39,78.84
22.53,6.42
51.84,73.14
22.07,6.82
51.01,68.67
24.31,7.55
17.39,2.58
26.21,8.83
48.15,52.78
57.24,101.22
24.58,7.93
24.33,8.41
17.91,2.21
50.75,72.55
24.89,7.77
52.81,71.52
51.88,77.83
48.56,58.12
24.45,7.59
40.4,43.15
47.4,53.27
53.17,78.45
58.42,97.02
18.33,2.01
53.41,73.45
57.71,92.35
41.5,38.83
24.26,7.14
28.6,11.35
18.06,2.21
56.71,103.38
24.15,7.46
55.91,94.13
40.52,44.86
20.5,5.58
41.86,42.24
24.77,8.05
28.33,10.73
58.03,104.02
57.93,99.21
22.51,6.94
26.95,9.7
24.49,8.12
24.48,7.27
18.41,1.23
58.49,99.31
55.54,95.69
20.06,5.27
22.59,6.09
22.17,6.71
57.64,94.79
43.28,42.06
28.29,11.04
17.6,2.76
40.06,39.96
26.3,9.15
20.03,5.28
46.73,54.73
48.89,52.36
46.73,55.49
28.1,10.05
52.86,80.5
24.75,7.33
42.67,43.92
58.45,102.54
20.6,5.13
52.69,73.2
40.83,41.09
56.39,91.02
47.53,56.21
24.54,8.06
43.12,42.73
22.82,6.27
55.77,94.49
57.64,103.66
51.49,80.3
51.91,71.29
26.65,8.87
57.25,97.92
22.61,6.67
55.83,94.95
43.3,44.76
24.99,8.46
51.71,71.59
45.06,49.83
53.34,78.4
28.49,11.29
20.88,5.99
51.53,71.77
28.91,10.14
18.64,1.03
28.38,11.35
42.11,40.22
28.92,10.61
26.81,8.66
42.28,41.25
20.01,5.97
47.2,51.75
45.99,54.78
18.79,3.99
28.31,10.9
45.21,58.35
22.53,6.6
22.62,6.63
58.97,96.7
26.59,8.98
18.26,4.97
51.16,70.22
57.59,107.29
28.08,10.34
26.57,9.78
53.3,68.19
24.32,7.44
50.45,77.5
24.99,7.03
24.86,7.95
40.45,38.76
28.24,10.83
50.33,70.2
17.84,4.74
17.97,2.45
50.25,73.29
28.39,10.53
57.43,103.42
52.48,67.7
26.6,9.22
26.34,9.01
20.81,5.92
45.87,55.4
47.62,56.83
41.97,37.85
47.95,52.21
46.75,51.3
45.75,58.03
41.83,44.64
40.66,39.1
20.9,5.51
50.96,69.38
20.18,5.81
41.55,40.1
53.89,68.07
50.27,70.52
22.38,6.15
55.39,102.33
58.99,106.56
26.61,9.05
51.5,79.7
24.56,8.38
26.04,9.31
22.3,6.14
28.95,11.13
53.48,75.12
26.51,9.88
17.37,3.35
28.83,11.04
46.56,56.48
43.14,39.31
40.0,40.46
56.71,94.76
43.6,40.0
24.49,7.86
26.63,9.11
46.22,55.43
28.21,10.62
18.23,2.05
22.45,6.63
28.8,10.61
24.35,8.25
51.35,76.03
55.56,93.42
22.37,6.87
51.86,67.35
26.86,9.59
45.63,58.56
43.26,44.19
22.71,6.49
26.18,9.6
48.42,51.12
17.78,1.83
20.79,5.75
28.48,11.46
20.65,5.3
26.77,9.62
40.34,40.61
22.28,6.56
26.06,8.75
41.55,44.49
57.84,104.91
17.79,2.66
22.43,6.15
17.96,4.14
22.65,6.14
53.38,73.79
41.02,45.06
24.86,8.08
28.81,11.48
40.54,37.37
22.96,6.81
22.5,6.05
47.17,56.54
55.75,99.05
57.66,102.06
24.96,7.48
52.63,68.65
42.34,43.45
24.16,8.26
57.45,97.2
26.69,8.54
48.48,53.99
48.3,49.4
43.09,38.81
18.82,1.13
28.97,10.86
47.02,53.86
22.47,6.65
47.84,53.46
28.14,10.64
20.61,5.85
45.33,59.27
57.84,95.87
45.6,55.57
26.28,9.36
48.04,49.18
28.71,11.38
26.95,9.64
42.76,44.03
26.02,8.54
18.84,2.69
18.77,3.79
48.75,53.4
28.94,10.05
18.91,2.24
52.94,71.42
24.06,8.45
17.1,4.13
28.45,10.19
17.81,4.84
53.18,67.7
51.13,68.41
48.93,54.37
56.16,95.38
22.6,6.79
28.87,10.07
53.25,77.98
53.09,79.69
51.79,73.55
26.64,8.61
57.47,98.76
26.93,8.69
57.05,98.68
40.5,44.89
20.2,5.41
51.36,72.2
52.35,75.07
20.4,5.63
52.31,77.4
26.64,9.41
20.39,5.26
42.01,44.06
56.39,95.43
22.19,6.12
48.43,49.45
24.54,7.57
18.33,1.8
20.15,5.42
18.94,2.08
20.85,5.03
56.71,98.42
22.1,6.54
56.66,104.29
57.14,102.0
22.52,6.31
46.92,57.83
22.55,6.57
43.65,40.1
58.72,102.32
28.7,10.64
20.59,5.08
53.89,78.77
24.01,7.58
22.49,6.7
50.95,73.88
17.78,2.43
18.67,3.88
47.85,49.38
24.1,8.19
24.42,7.5
20.78,5.37
22.36,6.91
53.33,78.68
24.96,8.13
55.55,94.38
28.75,11.38
26.69,8.61
58.43,92.1
57.35,95.23
28.5,11.5
53.49,70.43
41.48,40.73
55.07,105.74
55.76,102.73
24.12,7.26
22.41,6.33
51.75,80.48
52.97,73.29
22.06,6.22
20.39,5.13
28.76,11.37
28.25,10.86
28.85,10.17
24.49,7.86
47.52,58.83
51.64,75.49
28.65,10.49
26.47,9.72
28.55,11.36
47.31,54.44
58.69,105.1
24.32,8.38
48.67,56.07
20.01,5.87
55.88,105.19
20.2,5.38
42.45,44.03
58.12,106.5
48.6,58.89
17.52,2.91
26.02,9.13
28.52,10.24
22.84,6.05
41.51,41.33
48.58,54.14
47.76,55.02
41.42,40.2
24.2,8.33
26.73,8.57
45.04,52.43
26.52,9.18
26.87,9.17
48.49,49.65
24.7,7.68
20.79,5.37
22.49,6.54
52.33,70.71
52.14,71.91
40.46,38.78
20.3,5.88
53.84,75.66
22.6,6.77
24.08,7.89
20.43,5.58
18.72,3.9
42.67,39.48
50.46,78.75
51.55,74.36
17.76,1.6
17.09,1.24
22.46,6.56
51.57,73.22
28.51,10.41
42.53,41.79
20.79,5.13
53.22,72.09
18.36,2.43
28.52,11.3
48.34,51.84
40.91,40.97
17.09,2.94
48.96,54.03
41.31,43.1
24.67,8.28
28.82,10.94
20.16,5.12
28.85,10.16
45.82,59.17
26.71,8.89
18.3,4.55
59.0,95.58
48.61,54.12
45.23,50.02
58.72,109.15
26.18,9.36
26.98,9.38
26.06,9.09
45.36,58.09
56.71,99.7
53.62,74.74
20.63,5.91
17.17,1.02
42.25,37.98
43.66,44.71
46.57,57.74
24.77,7.74
22.85,6.94
20.86,5.24
50.94,71.92
22.62,6.71
41.14,38.34
28.03,10.36
28.35,11.37
24.66,7.14
20.72,5.71
17.83,2.75
22.12,6.17
40.69,40.24
40.45,42.21
20.09,5.28
22.82,6.26
28.48,11.36
58.57,104.45
43.57,44.86
24.38,7.96
24.24,7.56
20.38,5.78
45.84,50.64
56.92,102.57
24.35,8.25
22.99,6.67
45.37,51.04
42.95,44.94
28.15,10.93
53.22,74.05
20.33,5.48
41.41,43.79
26.38,9.31
50.35,68.83
42.19,40.33
56.78,100.83
26.17,8.79
46.59,58.86
17.62,2.74
28.92,10.16
53.3,68.21
26.37,9.89
28.31,10.05
40.07,44.68
22.53,6.21
46.0,49.48
51.84,75.69
22.11,6.62
28.84,11.39
22.7,6.82
48.86,59.01
56.08,107.51
51.98,79.11
46.61,50.9
40.76,44.27
55.26,90.95
17.74,4.33
24.18,7.12
48.12,55.7
24.14,7.77
26.19,9.18
58.29,93.07
26.17,8.75
51.65,78.79
42.95,42.7
41.48,38.47
22.85,6.49
47.78,53.74
52.31,74.3
51.29,75.82
20.87,5.39
45.18,49.72
22.95,6.16
56.6,109.84
46.14,56.82
22.15,6.54
45.18,55.13
56.22,94.08
41.13,41.91
20.23,5.66
26.66,9.07
22.4,6.78
24.35,8.1
20.35,5.38
20.73,5.72
51.03,73.97
43.51,39.09
55.4,94.13
28.84,10.51
26.01,9.82
41.47,43.72
24.85,8.21
52.84,67.46
26.17,9.15
26.83,8.53
20.56,5.34
50.87,67.56
26.53,8.69
41.45,37.63
55.69,108.24
26.4,8.61
24.07,7.51
40.72,40.92
48.86,53.3
51.93,71.73
48.7,52.58
20.23,5.46
47.02,57.54
55.99,100.5
24.0,8.38
58.55,104.51
18.1,4.76
47.75,58.51
55.61,97.75
26.28,9.9
51.34,74.85
45.04,58.2
26.17,9.37
28.39,11.14
17.62,2.0
26.48,9.36
22.23,6.29
46.09,53.53
55.59,108.48
18.41,1.93
43.41,43.71
17.77,2.44
22.27,6.53
28.19,11.27
40.28,37.84
20.05,5.38
18.3,1.01
18.08,1.86
53.12,79.11
24.93,7.5
58.58,92.83
22.68,6.86
20.76,5.13
22.76,6.91
20.66,5.38
57.77,97.23
41.56,40.81
26.33,8.88
20.55,5.66
24.75,8.19
41.38,44.99
26.43,9.04
43.31,38.67
50.68,76.61
28.28,11.23
56.19,101.21
52.38,72.37
47.62,52.86
24.93,7.51
51.95,72.02
18.07,4.1
42.68,38.07
57.32,109.45
20.51,5.66
52.56,79.36
26.38,8.89
20.3,5.09
41.13,39.99
24.25,8.3
45.9,52.38
18.93,1.44
55.51,92.39
47.32,53.22
46.17,57.74
57.78,104.52
42.77,42.71
18.12,2.18
43.5,43.44
24.33,8.13
51.05,79.08
43.17,44.93
52.55,72.48
20.92,5.16
20.57,5.1
46.49,59.38
18.82,3.15
20.32,5.6
17.11,2.85
26.32,9.44
46.7,49.53
22.06,6.47
28.09,10.35
52.55,79.08
20.56,5.38
58.96,108.27
28.35,10.48
20.71,5.57
50.5,67.85
28.91,10.63
52.75,76.2
24.88,8.35
47.67,54.34
26.12,9.58
24.12,7.12
20.16,5.15
28.3,10.41
22.11,6.7
55.32,97.19
51.09,70.26
22.95,6.19
43.96,38.81
28.67,10.55
56.75,100.62
26.87,8.99
24.17,7.42
42.64,40.88
26.4,9.45
55.54,95.93
26.83,9.9
50.37,73.89
20.07,5.22
28.99,10.79
41.87,44.53
26.19,8.69
41.99,42.76
28.91,10.25
26.18,9.42
43.04,41.7
20.21,5.52
28.97,10.91
47.66,49.46
24.3,7.05
24.69,7.63
22.5,6.13
52.57,79.73
20.51,5.88
50.07,75.37
26.55,8.7
56.14,100.46
41.29,41.32
22.96,6.25
24.67,7.64
56.77,108.43
55.32,93.8
55.65,95.63
26.43,8.72
47.69,49.55
26.33,9.49
17.55,1.97
24.46,7.02
46.61,56.93
26.56,8.6
20.47,5.26
20.8,5.51
40.5,41.44
20.49,5.68
20.3,5.16
56.53,101.58
50.06,74.14
47.61,53.76
48.97,56.99
22.54,6.56
26.31,9.75
52.68,67.61
52.63,70.27
22.53,6.18
18.83,4.46
46.15,51.2
22.54,6.19
46.38,56.07
28.15,10.78
22.13,6.48
47.38,50.69
24.13,7.17
20.41,5.31
51.93,70.32
42.41,39.16
22.77,6.25
26.39,8.5
56.43,94.12
28.62,10.94
51.69,67.4
20.37,5.55
28.29,11.12
51.92,67.46
26.8,9.51
28.63,10.02
28.54,10.51
42.48,40.43
18.58,1.75
55.6,95.73
42.29,43.16
52.03,76.9
56.94,103.37
22.2,6.78
48.8,58.56
22.74,6.98
57.58,104.3
40.16,44.62
56.03,106.82
45.78,54.08
24.88,7.89
24.28,7.29
26.43,9.26
28.07,10.19
26.43,8.69
24.99,7.51
18.45,3.07
22.91,6.41
20.68,5.57
26.71,9.35
20.19,5.01
20.88,5.95
46.71,55.49
20.71,5.72
43.35,41.59
56.74,107.36
22.09,6.38
22.93,6.88
28.69,10.31
58.4,98.06
40.87,43.53
24.82,8.01
47.84,54.66
26.4,9.77
58.41,109.69
46.2,55.15
48.0,51.54
56.87,95.61
24.65,7.28
57.22,102.43
51.8,70.8
47.89,58.17
28.65,10.57
48.26,49.45
28.68,11.39
24.08,8.46
17.07,4.89
43.78,43.67
43.07,40.75
28.99,10.17
26.94,9.56
17.34,4.64
45.46,58.78
28.29,11.36
40.12,41.64
50.66,69.65
28.43,10.09
53.41,75.61
55.24,98.21
50.82,80.32
58.68,92.48
41.24,44.61
51.92,77.92
22.37,6.56
42.82,41.96
47.26,53.61
46.36,51.61
51.95,74.1
58.48,93.63
22.53,6.27
50.16,80.13
55.29,108.37
20.99,5.3
52.78,71.83
57.44,95.48
58.97,97.5
58.92,92.75
57.81,97.83
22.96,6.22
41.18,38.33
52.64,75.69
22.63,6.4
51.17,80.85
22.87,6.01
28.87,11.24
22.82,6.48
20.94,5.07
18.5,3.1
20.15,5.12
40.13,41.21
57.55,99.31
40.3,44.44
47.28,54.54
43.81,44.25
55.18,100.23
58.75,99.85
26.63,8.6
18.53,3.34
18.13,4.67
48.95,57.16
24.21,8.32
58.12,98.06
52.2,70.4
17.4,1.69
47.12,53.28
26.42,9.98
57.1,105.47
17.03,4.93
51.76,74.93
26.25,9.47
18.06,3.38
26.54,9.31
57.41,96.73
56.14,104.92
50.13,68.43
18.82,2.22
26.15,9.87
24.24,7.41
51.04,74.13
28.8,11.29
56.12,98.76
46.1,54.03
20.89,5.11
45.31,49.47
56.06,99.94
22.43,6.7
45.95,53.55
42.82,37.31
22.65,6.44
17.27,3.03
18.02,1.55
28.53,10.96
50.37,77.64
20.24,5.86
20.62,5.72
24.79,8.47
53.75,77.27
24.96,8.13
56.15,94.15
28.61,10.36
51.73,71.14
17.88,2.63
56.29,107.91
18.8,1.97
45.05,56.74
55.09,98.78
20.89,5.18
52.91,70.64
45.65,57.75
28.46,10.67
24.64,7.76
56.57,106.15
55.27,101.76
24.13,8.43
24.57,8.31
20.81,5.76
53.22,70.52
56.34,96.36
28.14,11.22
28.4,10.07
53.21,74.17
47.57,57.33
18.7,2.71
20.42,5.53
22.5,6.09
28.14,11.29
26.46,8.85
26.26,9.75
58.79,104.39
52.76,79.87
46.25,53.57
22.43,6.32
43.63,40.73
48.24,54.84
22.16,6.44
26.38,9.04
46.89,54.99
45.14,56.39
42.63,40.83
41.64,43.86
20.58,5.23
24.8,7.55
24.68,7.5
24.98,7.48
57.12,108.05
46.1,53.7
20.94,5.11
45.99,49.11
26.41,9.43
40.3,42.59
45.1,57.5
42.45,37.99
28.3,11.48
47.87,56.05
47.49,50.61
40.51,39.01
45.49,54.49
43.2,38.41
45.77,55.3
28.52,10.93
26.37,9.92
22.31,6.56
42.97,42.95
24.54,7.39
47.88,57.05
22.68,6.61
42.14,40.24
17.83,1.8
26.55,9.16
20.83,5.7
46.99,49.42
51.15,71.96
18.49,4.07
24.36,7.42
51.63,69.17
20.54,5.94
24.26,7.72
26.27,9.28
20.01,5.45
28.6,10.06
41.62,41.81
47.51,55.66
28.48,11.18
51.77,80.81
47.91,54.01
56.59,91.5
42.41,44.19
24.91,8.23
28.83,10.09
26.32,9.24
26.94,9.12
53.7,80.93
56.8,106.08
24.38,7.34
41.78,37.65
46.99,54.52
51.22,72.65
57.8,98.97
46.99,49.42
48.81,56.31
26.03,9.87
57.15,99.31
22.89,6.65
48.61,53.52
24.3,7.02
51.28,73.26
24.39,8.04
50.94,67.79
56.52,92.14
57.26,103.69
40.14,41.53
56.43,109.41
28.57,10.43
22.81,6.65
41.17,40.05
46.21,50.5
40.12,41.3
52.39,75.66
21.0,5.12
47.5,56.72
42.07,44.26
28.39,10.4
28.47,11.28
18.64,1.99
42.42,44.69
28.23,10.3
46.76,50.55
50.37,69.12
26.57,8.8
40.68,42.9
22.32,6.42
18.47,1.57
28.64,10.94
57.11,106.45
42.12,38.69
20.44,5.42
57.7,94.57
48.63,56.18
45.65,55.61
17.46,2.89
55.44,105.96
26.8,8.96
42.76,43.34
40.68,44.31
28.41,11.16
28.75,10.53
20.87,5.57
20.58,5.82
20.78,5.43
57.31,91.22
48.63,50.69
18.13,4.28
41.85,37.73
55.84,91.97
24.26,7.54
41.17,39.0
28.97,11.04
42.8,41.81
55.72,100.67
26.91,8.94
57.35,109.57
20.5,5.01
48.73,58.16
26.47,9.5
53.1,77.24
42.91,44.46
28.05,11.04
24.58,8.45
47.73,52.15
18.43,4.92
28.26,10.52
26.71,9.14
24.72,8.37
56.35,91.93
57.07,102.12
28.98,10.73
22.79,6.8
17.03,4.95
20.41,5.65
24.27,7.33
50.49,79.78
43.59,42.98
57.39,105.28
24.81,8.1
41.14,39.57
18.24,2.33
42.37,44.58
24.44,8.08
28.2,10.67
58.34,95.62
24.77,7.02
20.83,5.32
56.41,108.86
20.93,5.15
47.2,54.44
26.03,9.08
20.36,5.01
28.4,10.45
24.61,7.69
57.05,103.62
17.1,2.26
22.85,6.36
28.3,10.77
46.42,54.17
18.26,4.88
46.24,54.6
28.7,10.52
24.71,8.04
28.92,10.35
48.16,53.35
52.48,72.72
17.67,3.47
52.46,70.61
50.78,70.87
24.09,8.39
42.56,42.07
17.7,2.22
53.32,77.36
55.87,101.29
28.48,11.29
57.76,108.97
28.46,11.39
18.21,4.06
53.46,71.64
41.19,37.71
20.07,5.28
20.96,5.75
26.77,8.54
57.04,93.98
53.24,78.88
18.45,3.43
26.59,9.45
28.12,11.46
52.69,71.59
24.84,7.15
41.6,42.31
20.81,5.18
43.56,38.7
43.16,44.07
58.18,101.19
24.72,7.96
22.71,6.84
45.45,53.05
24.18,8.11
24.61,7.7
26.22,9.33
24.0,7.85
22.19,6.6
24.12,7.17
48.53,55.34
43.33,40.83
24.1,7.98
22.4,6.36
46.4,52.28
40.29,39.6
58.16,101.57
47.64,56.1
26.4,9.52
57.8,101.61
20.92,5.48
26.23,9.56
22.58,6.76
22.95,6.46
24.2,7.93
22.26,6.39
18.8,1.41
53.51,77.24
17.19,3.24
18.9,4.26
22.26,6.9
52.99,81.21
53.72,76.38
28.98,11.03
41.68,43.4
26.12,8.8
26.38,8.83
28.25,10.25
56.6,109.4
24.99,7.84
24.99,7.84
52.83,67.45
52.96,80.51
40.1,38.89
46.6,54.86
40.01,39.55
24.92,8.25
52.63,76.13
58.06,107.66
18.87,2.27
28.94,10.15
20.19,5.84
20.03,5.07
22.87,6.17
24.04,7.2
22.25,6.51
22.25,6.46
52.46,80.85
42.27,42.65
20.41,5.22
17.81,2.09
18.49,4.22
41.88,43.36
45.8,55.52
45.4,52.57
22.99,6.99
20.8,5.78
48.03,52.34
53.02,75.15
53.97,68.77
24.42,7.59
50.09,68.95
43.22,39.5
53.23,70.62
41.62,42.4
20.75,5.15
43.13,40.31
24.05,7.38
47.45,58.24
46.47,51.61
26.43,8.82
51.66,69.78
58.02,102.74
17.06,1.19
28.74,10.17
40.06,41.83
24.93,7.94
42.43,38.19
24.75,7.58
57.11,97.55
40.35,40.92
42.02,44.32
40.05,43.8
24.55,7.37
57.51,96.21
42.14,42.66
55.74,96.3
53.19,69.36
45.31,52.09
48.97,50.8
28.14,11.16
28.73,10.39
58.44,101.6
20.23,5.63
20.76,5.15
20.63,5.1
28.76,10.92
43.73,41.62
20.73,5.82
47.96,53.94
55.22,91.34
28.41,10.94
45.58,52.61
17.77,4.99
17.58,2.79
17.19,3.8
22.07,6.12
48.52,49.21
26.21,9.88
52.22,80.72
47.37,50.66
56.41,106.46
20.01,5.59
58.27,104.01
43.46,44.01
58.22,100.64
57.86,97.69
42.16,43.98
20.44,5.57
50.11,74.8
18.08,1.84
56.59,100.89
56.53,99.66
56.66,103.15
56.16,103.46
20.85,5.02
47.63,55.52
41.88,42.07
20.45,5.95
24.55,8.41
22.03,6.06
52.54,75.08
40.16,37.81
50.61,68.43
52.48,79.8
57.21,94.77
22.25,6.08
20.08,5.29
47.01,58.69
40.97,44.55
41.88,43.15
41.6,37.99
20.34,5.54
46.66,56.84
53.57,74.79
18.41,1.37
28.12,10.34
46.01,57.13
26.06,8.54
45.1,52.19
57.04,92.19
20.32,6.0
22.43,6.94
28.83,10.0
42.99,42.8
55.08,92.42
20.41,5.36
58.91,95.06
58.71,96.55
48.25,50.59
48.7,58.21
26.64,8.68
50.06,70.7
51.16,77.59
17.81,4.61
20.29,5.97
50.54,67.48
58.51,102.87
43.99,40.4
56.43,93.46
24.45,7.21
55.01,106.95
28.57,10.82
52.88,76.29
24.26,7.57
46.85,51.21
52.2,69.24
20.92,5.69
57.4,94.04
20.06,5.05
53.21,80.23
57.38,94.31
20.51,5.25
43.28,37.68
47.14,53.8
40.26,37.95
58.4,108.86
20.87,5.13
53.27,78.44
17.87,2.52
24.57,8.13
56.25,102.76
52.15,78.03
18.41,4.01
24.29,8.08
55.47,106.1
41.76,38.95
26.92,8.78
17.01,1.26
57.22,107.09
20.61,5.9
24.04,7.57
22.67,6.9
28.52,10.98
20.31,5.3
24.16,8.5
45.11,51.08
22.06,6.99
26.67,9.63
56.24,104.7
42.32,37.85
43.91,39.65
28.25,11.36
22.0,6.13
18.66,3.34
55.9,99.25
51.64,78.29
42.51,42.57
56.69,102.85
26.32,8.55
47.68,51.07
26.31,8.69
57.49,108.88
41.38,40.82
18.0,3.68
24.94,7.26
45.16,57.66
22.88,6.08
20.63,5.57
58.03,92.7
18.24,3.89
58.65,102.27
48.53,54.39
20.83,5.46
20.95,5.2
28.8,10.38
43.39,39.16
50.64,69.99
52.64,77.8
20.26,5.46
52.4,68.74
20.89,5.97
24.12,8.23
26.35,9.99
58.44,95.89
55.81,101.13
40.58,44.97
51.16,70.5
45.05,51.31
26.32,8.51
24.12,8.35
22.86,6.61
43.66,39.15
20.63,5.11
45.44,54.01
45.05,53.9
56.86,92.6
45.82,54.58
57.53,100.81
41.94,41.57
58.79,91.85
26.96,8.94
26.9,9.33
52.22,72.86
20.99,5.6
28.93,10.66
22.13,6.92
26.79,9.55
43.6,42.3
24.78,7.37
53.14,69.88
28.22,10.81
17.89,3.96
20.05,6.0
28.16,11.26
55.14,99.96
41.51,40.22
52.35,71.5
20.79,5.48
28.58,11.4
56.2,107.31
26.32,9.4
52.29,69.26
53.3,68.31
24.55,8.2
17.21,1.48
17.35,3.45
20.75,5.32
22.4,6.46
20.17,5.99
46.66,56.14
18.86,2.4
52.16,68.36
22.29,6.14
58.87,106.18
52.32,72.51
28.57,10.61
46.48,49.4
40.07,40.54
18.21,3.42
18.54,3.12
41.43,43.17
20.89,5.0
17.53,4.49
28.49,11.12
28.95,10.02
43.95,41.94
26.22,8.86
22.89,6.59
26.7,9.52
40.74,41.66
28.12,10.03
40.8,42.79
45.85,50.6
24.66,7.96
28.15,11.02
20.92,5.16
41.13,38.1
24.07,8.16
48.73,53.09
41.82,41.61
22.65,6.56
50.21,68.38
24.57,7.5
42.07,44.38
41.55,43.55
47.57,52.58
40.31,44.24
45.93,50.55
42.52,42.56
24.76,7.3
55.54,103.18
24.97,7.19
57.64,103.6
56.0,103.43
20.39,5.35
50.09,71.87
40.46,39.89
42.44,42.11
26.48,8.61
50.58,74.46
24.38,7.49
17.12,4.61
20.58,5.04
26.18,9.26
17.84,4.0
28.22,11.09
26.84,9.01
42.83,42.41
17.43,3.86
58.68,108.57
22.79,6.37
47.31,54.66
22.96,6.43
52.21,70.28
20.28,5.22
40.71,39.47
28.13,10.41
41.17,42.25
58.89,107.45
51.26,77.5
20.48,5.83
17.27,4.37
41.24,42.71
17.09,4.01
41.93,38.62
26.17,9.38
46.0,51.73
28.06,10.77
42.32,44.51
26.25,9.79
17.24,4.19
43.8,43.72
57.73,100.83
22.35,6.5
51.43,80.07
40.83,41.54
51.6,78.62
22.99,6.03
17.73,1.39
24.86,7.31
17.69,3.57
50.22,71.71
26.3,9.16
18.61,3.55
43.45,37.94
26.54,9.87
17.9,2.36
22.37,6.41
24.99,7.91
41.36,44.29
42.55,44.26
45.2,52.92
47.99,57.28
18.68,3.07
28.46,10.56
45.89,51.93
22.5,6.96
24.6,7.49
40.33,42.41
26.86,9.52
50.01,78.6
20.36,5.31
18.1,1.57
58.56,98.13
17.12,3.54
41.83,41.79
28.8,10.1
42.75,39.24
17.22,2.13
20.53,5.23
17.97,3.78
24.62,7.6
17.8,2.73
28.69,11.0
28.72,10.3
24.69,7.02
24.63,7.08
50.14,76.21
26.18,9.82
18.07,2.11
24.72,7.39
57.22,98.91
22.49,6.81
40.09,39.08
56.2,109.25
24.16,7.95
48.75,51.89
41.81,42.47
26.84,8.66
55.23,93.16
24.31,7.17
24.68,8.19
26.8,9.34
41.79,42.46
57.0,95.12
51.81,67.48
41.82,39.69
58.69,91.79
53.1,67.37
28.72,10.67
17.13,1.74
56.71,96.83
42.63,37.81
42.26,38.18
20.09,5.84
42.89,41.56
46.37,57.83
52.08,75.38
20.58,5.25
18.82,3.86
51.28,77.77
24.0,7.22
58.91,104.97
17.01,4.2
55.75,104.96
20.49,5.54
28.22,10.48
42.5,40.2
26.38,9.77
53.54,73.25
46.15,55.6
58.64,97.33
26.07,9.12
58.1,91.56
43.02,44.55
57.17,106.34
57.28,91.9
46.4,54.71
48.77,53.69
56.85,100.1
28.0,10.88
46.01,50.87
43.13,43.27
52.91,72.48
48.0,54.8
58.41,98.86
50.75,74.69
28.1,11.31
53.14,69.91
58.72,107.08
18.64,4.07
51.55,76.14
45.9,56.93
48.83,52.12
28.84,10.01
26.32,9.3
20.3,5.66
20.5,5.44
45.77,55.8
55.52,92.25
24.92,8.48
58.74,102.48
24.26,7.1
26.34,8.93
22.52,6.23
40.73,40.97
24.34,7.36
45.97,57.63
22.59,6.2
24.54,8.43
57.58,109.45
26.77,9.88
24.6,8.19
48.97,57.63
53.61,76.07
41.73,41.61
17.25,1.65
43.65,39.59
46.61,55.39
22.4,6.78
20.1,5.9
22.14,6.21
40.04,43.46
24.41,7.87
20.18,5.47
22.71,6.4
17.88,1.25
28.35,11.41
20.67,5.69
52.92,78.25
17.43,2.82
28.69,10.62
43.83,38.85
47.11,50.49
53.25,80.54
20.51,5.84
40.62,37.63
26.18,9.75
28.66,11.28
26.96,8.63
42.14,37.29
45.4,53.97
52.28,73.12
42.64,41.29
20.19,5.27
56.85,97.09
22.11,6.13
22.44,6.55
52.11,68.39
53.36,73.88
57.61,96.53
52.27,68.64
58.63,95.56
50.42,78.02
48.25,58.81
24.54,7.19
56.31,107.91
47.57,58.2
52.26,76.27
50.16,68.21
24.62,7.82
58.21,100.41
40.17,43.76
22.67,6.49
24.76,8.29
28.36,10.73
26.16,9.53
22.51,6.7
58.97,107.95
47.31,53.78
53.6,67.96
24.78,7.17
26.72,9.93
53.49,79.24
58.36,106.76
28.4,10.97
48.83,49.38
41.74,44.13
18.02,1.87
22.89,6.09
42.08,42.72
50.69,69.01
42.99,37.65
18.27,1.15
26.87,9.49
26.85,9.36
22.44,6.46
22.12,6.05
28.84,10.52
40.59,39.96
20.41,5.33
26.91,9.4
53.26,75.38
42.37,45.02
24.48,7.53
50.95,81.14
41.64,42.87
40.32,43.45
47.95,51.43
56.11,107.1
18.25,1.91
17.07,3.89
17.37,3.28
22.75,6.43
18.87,4.38
53.02,78.91
22.06,6.42
52.65,77.9
26.97,8.57
20.9,5.21
24.78,7.85
43.2,44.91
52.57,76.03
53.24,72.75
20.71,5.44
24.49,7.22
56.96,100.2
24.52,7.82
26.3,9.16
42.15,38.17
46.67,56.65
18.09,1.88
17.29,2.91
53.62,73.59
45.01,49.55
52.66,70.82
26.85,9.02
26.41,9.27
17.2,1.21
42.73,44.57
22.92,7.0
26.29,8.54
55.12,100.54
22.07,6.47
22.7,6.59
53.2,81.21
58.07,103.38
20.22,5.09
20.37,5.08
41.79,44.69
47.6,55.01
24.37,8.43
43.7,41.51
58.11,102.25
18.77,2.29
20.33,5.84
28.34,10.27
51.31,69.88
20.69,5.05
41.73,40.03
55.11,93.5
18.72,2.7
51.16,79.53
24.78,8.07
56.88,91.99
18.6,3.66
53.98,73.32
55.25,96.91
48.17,52.98
51.48,81.15
50.48,75.05
24.25,7.6
47.46,58.79
51.52,68.74
56.71,104.62
24.5,7.32
51.92,76.67
41.23,41.8
57.33,93.7
20.98,5.49
28.21,10.36
46.91,55.76
58.08,96.67
22.34,6.84
28.96,10.77
26.15,9.26
55.7,95.72
47.21,52.4
28.96,10.26
20.46,5.67
26.66,9.04
56.45,99.76
43.3,38.69
24.79,8.01
18.09,2.75
56.7,94.24
58.25,101.26
52.74,75.09
26.7,8.95
20.67,5.49
50.45,79.84
23.0,6.31
24.5,8.22
24.71,8.08
50.86,73.1
20.86,5.41
26.22,9.67
26.98,8.94
26.6,9.78
22.72,6.12
28.3,10.61
41.56,42.27
24.09,7.69
46.54,52.25
48.94,50.71
26.2,9.25
24.46,8.22
28.93,11.37
28.81,11.11
53.83,79.49
28.28,10.39
24.44,8.17
28.44,11.46
57.76,97.39
40.34,40.33
22.68,6.17
20.95,5.91
18.83,2.47
58.96,105.28
20.12,5.54
28.9,10.8
53.05,69.35
52.73,73.6
26.96,8.51
52.49,73.87
48.91,59.22
52.68,72.03
50.3,73.83
20.04,5.84
28.85,10.1
51.04,71.2
47.34,50.05
50.88,80.94
24.49,7.76
48.61,58.85
57.06,105.32
50.14,68.79
50.91,78.84
28.23,11.39
52.35,72.64
50.69,69.73
20.03,5.74
48.61,51.69
53.28,69.15
58.46,91.89
24.35,7.18
50.66,68.16
20.05,5.77
24.24,8.5
50.37,67.88
28.2,10.71
24.76,7.87
48.04,56.79
22.33,6.2
26.08,9.77
53.33,74.18
17.34,2.2
43.72,44.66
47.52,58.74
28.46,10.36
47.11,50.28
56.99,109.94
28.16,10.69
26.7,8.7
45.55,58.47
18.6,3.9
18.89,2.15
58.14,108.91
41.62,37.98
41.17,44.13
22.71,6.87
20.15,5.04
26.2,9.09
48.04,49.76
24.2,7.15
24.36,8.28
26.86,9.03
41.29,38.63
17.51,1.87
26.81,9.02
22.84,6.43
58.37,103.63
51.07,80.0
52.11,77.02
41.35,44.08
24.36,8.05
22.41,6.91
40.34,38.03
20.3,5.49
58.51,106.58
48.61,54.27
52.91,73.25
48.23,57.46
55.18,93.61
52.24,73.14
40.59,37.68
52.69,76.78
52.09,71.4
20.05,5.86
40.55,41.44
53.32,71.96
40.93,42.9
28.57,10.98
48.24,58.77
51.21,73.6
20.96,5.94
57.14,102.27
47.21,59.19
20.91,5.5
55.55,93.25
24.77,8.42
26.2,8.76
40.5,44.53
51.75,80.29
48.56,50.81
48.82,50.38
18.8,1.1
55.26,100.72
20.58,5.57
26.52,8.61
20.0,5.57
52.37,77.2
47.75,49.27
40.89,38.16
51.35,73.55
46.96,53.37
20.88,5.58
56.98,105.21
24.58,7.89
56.58,108.8
26.96,9.78
42.63,38.15
57.19,107.61
55.35,104.93
22.09,6.56
20.52,5.53
22.83,6.94
20.92,5.13
41.58,37.28
50.83,72.07
56.65,109.57
20.79,5.17
45.6,54.71
46.67,51.42
51.75,80.83
41.09,44.28
47.99,54.45
26.56,9.21
45.73,54.36
28.39,11.03
41.54,37.31
43.07,43.41
53.84,78.07
24.79,7.68
48.77,54.99
56.78,96.98
40.06,44.41
28.98,10.46
52.16,79.61
17.55,3.54
20.57,5.74
24.39,8.43
22.94,6.93
20.79,5.07
20.73,5.13
40.08,42.29
48.8,55.92
42.43,37.61
22.74,6.71
20.52,5.83
26.91,9.05
43.69,42.98
41.58,41.48
18.59,1.71
41.9,37.62
20.1,5.21
20.49,5.35
50.44,72.72
47.14,55.97
22.49,6.83
20.67,5.18
56.69,97.65
47.72,53.94
20.54,5.36
55.96,100.35
42.63,40.36
50.18,75.19
18.49,3.36
51.68,80.96
51.48,70.3
17.76,3.33
22.34,6.83
28.1,10.78
28.27,11.48
17.02,1.92
50.84,75.86
17.25,2.38
55.24,101.11
17.02,4.88
55.43,105.92
43.92,40.71
24.91,7.72
17.38,3.9
46.99,49.11
22.84,6.99
51.34,80.94
40.18,42.8
42.98,37.3
26.72,9.73
43.21,39.31
58.89,94.79
22.4,6.99
24.4,8.21
50.71,70.24
56.13,95.52
17.61,1.93
22.77,6.51
17.78,3.77
41.0,39.3
47.93,51.61
24.11,7.48
45.05,49.39
26.81,8.97
17.22,4.74
42.27,38.25
26.99,9.62
45.63,51.1
20.3,5.12
55.9,107.7
17.4,3.24
53.39,80.6
46.24,58.62
28.96,10.53
51.09,73.9
26.9,9.84
51.83,80.46
47.44,54.0
22.78,6.93
24.84,7.16
56.09,107.97
51.36,79.86
18.52,2.44
43.45,43.11
20.38,5.52
20.36,5.87
24.64,7.17
24.15,7.48
50.39,79.9
58.67,107.96
57.26,100.41
20.97,5.29
17.74,4.71
53.29,68.94
43.21,38.66
45.22,55.7
24.3,7.74
47.8,55.55
22.81,6.69
51.53,73.09
43.79,41.45
46.11,51.98
24.17,7.94
56.71,102.07
26.91,8.65
46.69,57.8
20.29,5.85
56.34,107.19
26.52,8.83
20.85,5.56
58.55,104.4
47.26,52.96
17.82,3.78
22.02,6.19
20.82,5.84
26.01,8.72
43.77,38.09
55.14,92.34
42.06,41.78
56.87,106.25
56.84,102.81
26.8,9.08
41.37,44.37
26.52,9.15
53.09,79.65
48.96,51.11
24.05,8.28
24.24,8.14
53.84,72.83
40.58,39.69
22.15,6.27
40.28,41.77
26.32,9.1
28.58,11.02
18.9,2.14
55.4,106.26
17.76,4.61
18.12,3.58
57.87,106.08
56.84,109.36
42.09,38.66
24.35,8.08
51.0,72.7
20.44,5.71
18.61,3.94
48.56,54.35
22.49,6.39
40.6,38.4
53.7,78.13
24.21,7.65
42.53,40.73
52.94,68.65
28.74,10.26
24.46,7.92
20.46,5.72
58.28,91.02
20.87,5.75
41.73,38.92
20.22,5.57
28.86,10.72
50.41,78.13
22.1,6.49
57.06,100.54
47.31,50.6
28.75,10.92
28.57,10.09
48.64,56.19
56.45,108.88
26.89,9.23
43.09,41.58
57.2,104.32
22.82,6.41
45.17,57.62
17.38,4.73
45.93,58.99
22.68,6.14
24.75,7.77
26.09,9.6
24.39,8.17
26.78,9.42
24.73,7.52
17.95,4.04
24.49,7.89
22.67,6.29
41.75,40.14
24.09,8.47
18.16,4.24
26.2,9.52
24.83,7.77
53.37,69.41
51.6,80.16
56.54,101.4
18.67,3.47
40.23,39.75
20.44,5.54
24.57,7.94
28.38,10.84
43.21,42.01
24.89,7.5
40.53,41.66
52.04,76.88
56.45,96.46
24.45,7.76
18.16,2.03
28.36,10.35
22.91,6.54
18.42,2.62
22.14,6.29
56.29,100.33
57.76,105.25
52.68,81.18
41.09,39.72
43.11,39.5
26.28,9.7
17.78,2.55
58.38,109.27
55.73,101.4
26.75,9.11
40.01,44.19
28.26,10.38
26.88,9.41
47.96,50.61
46.61,55.7
24.96,7.77
20.25,5.22
52.22,68.1
55.35,107.97
22.41,6.57
28.37,10.18
55.88,92.4
51.17,78.12
20.78,5.87
55.01,97.11
55.34,103.9
55.11,108.27
17.25,2.43
42.9,40.31
28.45,10.64
40.73,38.46
50.26,68.9
20.58,5.11
20.45,5.4
26.56,8.63
56.26,107.73
28.68,10.3
17.82,3.6
18.21,3.87
20.49,5.52
20.55,5.58
18.0,2.76
45.57,55.54
28.42,11.0
55.77,106.06
28.0,10.73
28.05,10.26
22.97,6.45
28.73,10.32
26.06,9.04
45.75,54.87
26.21,8.66
28.09,11.17
48.22,56.64
58.21,92.85
52.28,77.55
28.6,11.33
22.57,6.36
22.77,6.68
22.34,6.4
52.32,77.4
22.13,6.2
20.71,5.21
18.06,2.17
52.77,72.05
40.85,41.26
41.29,43.63
17.5,3.38
47.32,49.28
42.99,45.01
28.45,10.74
55.44,106.39
48.4,59.05
52.22,78.6
46.0,54.53
51.83,79.0
22.63,6.59
45.85,54.71
45.59,55.7
52.35,77.86
53.39,71.97
24.42,8.4
24.0,7.09
53.05,75.8
20.02,5.19
45.19,59.37
26.22,9.98
58.18,94.17
46.32,54.79
26.99,8.69
55.31,103.97
47.84,58.26
28.22,10.8
18.68,4.96
26.71,8.87
40.69,40.56
22.61,6.32
28.67,10.78
22.89,6.6
40.65,40.21
26.79,8.71
45.67,49.94
42.66,44.34
45.02,50.92
20.68,5.19
26.05,9.12
47.43,52.05
24.26,7.18
24.49,7.42
57.88,107.41
26.69,8.87
52.22,77.66
50.26,70.11
24.96,7.54
40.57,44.4
22.47,6.25
24.04,8.43
18.77,3.75
50.92,71.33
51.79,68.84
42.66,44.53
20.41,5.75
51.47,73.59
45.92,53.19
28.82,10.76
26.09,9.94
47.0,49.21
55.27,104.27
20.7,5.66
20.47,5.68
55.02,92.97
40.36,43.46
53.03,79.2
53.7,76.51
28.73,10.83
20.97,5.11
28.1,11.26
55.38,108.68
43.05,37.33
22.74,6.6
20.13,5.32
40.94,39.57
50.86,73.52
24.78,8.07
26.03,9.72
20.61,5.18
45.75,49.53
57.9,91.25
20.6,5.32
43.89,43.6
42.3,45.03
20.03,5.19
48.06,58.86
41.73,44.37
22.01,6.31
20.32,5.72
17.57,2.52
17.43,3.39
40.39,42.25
51.74,78.81
45.93,58.33
52.46,75.67
43.05,40.82
28.54,10.75
52.51,68.41
24.58,7.77
20.18,5.03
58.12,91.18
28.85,10.0
20.45,5.38
26.27,9.11
22.06,6.38
26.66,9.71
18.06,4.67
22.15,6.7
51.79,78.99
53.76,74.28
58.57,95.01
28.96,11.0
24.26,7.63
55.1,109.51
58.62,99.43
45.64,51.51
24.03,8.18
24.91,8.03
58.67,92.68
43.87,44.81
24.75,7.59
24.32,7.5
45.69,54.14
20.9,5.17
42.12,37.95
18.22,1.5
48.28,55.67
28.93,11.39
56.66,93.99
46.84,52.06
28.14,10.32
45.18,53.78
50.22,74.89
47.53,57.56
47.5,59.04
42.5,39.71
56.53,99.64
45.82,53.28
18.78,3.58
52.09,69.51
22.65,6.76
24.96,8.29
17.48,2.71
40.02,44.35
48.78,50.49
40.57,43.51
46.93,53.32
56.44,94.22
48.52,56.98
55.79,109.6
26.62,9.28
28.41,10.95
53.58,72.65
43.24,38.48
58.84,104.56
52.67,79.08
28.02,11.26
53.9,70.91
28.31,10.74
26.28,9.54
48.86,52.58
43.03,42.83
28.66,10.5
17.36,3.0
40.52,38.5
22.42,6.04
48.41,54.05
20.79,5.2
48.9,58.16
22.92,6.53
52.6,74.6
27.0,9.77
53.02,71.49
26.35,9.19
28.68,10.89
56.3,93.77
26.06,9.4
47.97,53.0
22.94,6.67
18.99,1.92
53.03,67.62
51.94,76.21
20.46,5.63
40.06,39.52
28.85,10.56
26.22,9.23
45.79,53.79
48.93,54.41
20.64,5.03
24.33,7.68
22.49,6.71
57.59,99.95
40.81,44.44
45.94,50.5
26.04,9.67
52.15,71.9
18.68,4.11
51.5,80.27
46.15,54.93
26.79,9.6
46.97,52.19
17.51,4.69
24.11,7.98
26.45,8.79
20.47,5.88
53.18,80.48
28.85,11.18
17.05,3.02
26.48,9.42
28.68,10.22
53.29,79.58
52.98,72.9
18.26,4.36
53.7,67.87
57.61,98.76
43.15,40.82
45.29,57.84
20.23,5.42
40.9,38.94
56.2,104.04
57.38,108.07
28.68,10.0
28.07,11.17
45.72,50.4
42.35,43.18
24.55,8.02
26.22,8.75
17.07,4.94
24.03,8.47
50.48,76.96
47.76,49.67
43.75,43.0
40.58,37.77
41.03,42.58
20.57,5.88
20.13,5.08
52.35,73.99
17.67,4.43
26.37,9.8
17.4,3.06
26.26,9.7
18.22,1.29
26.04,9.04
53.39,79.6
41.29,40.06
26.22,9.67
45.35,52.4
26.16,9.78
20.01,5.63
52.41,76.05
18.61,2.99
26.03,9.65
56.08,100.26
24.4,7.32
50.11,68.05
41.35,39.42
22.07,6.45
28.34,10.39
43.57,39.05
24.3,7.23
58.69,98.46
24.9,7.4
48.56,57.78
55.72,92.52
18.9,3.58
20.86,5.31
29.0,11.19
52.76,67.43
58.16,96.89
51.12,67.55
47.44,53.4
24.33,8.12
48.05,49.22
22.29,6.39
50.83,79.72
40.77,40.33
41.3,37.73
20.03,5.0
55.41,105.99
40.03,43.66
20.9,5.4
24.58,8.25
57.99,108.37
55.7,102.61
47.06,55.78
26.05,9.97
26.94,9.28
53.92,76.56
20.63,5.14
28.6,11.31
26.2,9.37
50.61,79.7
43.81,40.28
24.73,7.13
56.63,109.97
22.31,6.05
56.4,98.07
17.27,3.06
58.38,93.49
28.81,10.72
55.54,94.74
47.26,58.69
17.95,4.0
47.38,58.85
17.18,3.49
47.37,57.61
18.02,4.66
43.84,40.08
22.25,6.12
26.02,9.42
26.12,9.44
52.83,71.09
42.17,37.6
22.2,6.65
28.09,11.14
22.83,6.34
20.15,5.28
52.64,79.84
40.49,41.81
20.55,5.19
46.21,51.53
47.98,54.24
53.68,78.58
26.15,8.77
52.2,67.78
28.43,11.44
20.6,5.06
45.72,55.15
53.55,68.31
28.59,10.23
26.25,9.76
43.69,42.12
20.86,5.51
24.3,7.1
28.62,10.74
48.06,56.48
47.05,58.82
57.27,100.2
22.01,6.55
26.73,9.99
17.72,2.73
53.74,79.73
40.47,37.34
57.18,100.17
58.12,103.93
51.34,77.45
24.85,8.27
22.79,6.25
48.68,52.19
52.98,74.44
26.59,8.86
20.46,5.26
42.1,39.66
22.91,6.63
26.82,9.43
58.39,91.4
53.29,75.32
47.45,53.56
58.22,92.92
46.29,56.63
45.14,57.51
26.96,8.66
41.84,41.88
56.52,104.42
48.33,50.32
50.29,78.68
20.44,5.38
17.67,1.29
18.56,3.94
18.62,1.93
20.67,5.42
20.76,5.22
28.6,11.28
24.08,8.44
57.87,101.52
47.63,51.59
26.43,9.77
20.58,5.96
58.49,99.15
20.38,5.53
24.27,8.39
28.52,11.35
46.23,52.44
26.32,9.47
20.2,5.35
18.69,3.35
53.75,81.0
46.63,55.8
22.11,6.02
22.87,6.77
17.42,4.82
40.23,43.35
43.66,40.51
57.55,96.96
28.95,11.45
52.8,70.17
42.61,37.32
18.43,4.82
52.43,71.43
28.76,10.79
18.47,2.58
24.37,7.28
58.65,108.73
22.45,6.06
18.86,1.17
57.07,98.35
28.41,10.01
26.09,9.89
51.51,77.15
26.19,8.56
24.81,7.99
46.53,54.61
18.21,4.25
40.11,38.5
22.02,6.03
22.2,6.58
56.56,96.75
22.9,6.52
22.88,6.84
52.44,72.69
56.62,109.81
28.21,10.81
24.54,8.13
48.32,49.18
47.18,57.88
22.33,6.12
52.9,73.16
24.5,7.17
20.41,5.11
22.35,6.75
42.81,37.6
57.4,91.5
18.42,1.66
24.83,7.44
26.39,9.28
24.98,8.04
28.5,11.23
26.97,9.76
28.05,11.19
45.04,58.31
26.94,9.34
40.31,43.01
24.54,7.79
48.62,54.44
26.32,8.71
20.94,5.8
24.52,7.53
17.87,3.59
17.38,2.63
42.09,43.94
28.35,10.84
51.77,69.84
26.09,8.61
26.7,9.47
55.66,95.2
22.43,6.08
26.08,8.9
57.26,100.88
42.39,43.35
22.05,6.36
53.54,72.96
22.38,6.22
53.8,73.47
22.58,6.82
20.78,5.6
53.2,77.82
28.7,10.7
28.12,11.21
20.67,5.36
20.41,5.35
17.24,4.45
42.45,40.92
41.96,41.17
43.18,40.8
58.68,101.46
51.31,75.29
46.98,51.36
20.84,5.81
56.1,100.47
17.41,3.66
